{
  "project_info": {
    "project_number": "260602245039",
    "firebase_url": "https://vitrina-digital-fbe7d.firebaseio.com",
    "project_id": "vitrina-digital-fbe7d",
    "storage_bucket": "vitrina-digital-fbe7d.appspot.com"
  },
  "client": [
    {
      "client_info": {
        "mobilesdk_app_id": "1:260602245039:android:ce88632704174a57f3095a",
        "android_client_info": {
          "package_name": "com.oderbiz.vitrina"
        }
      },
      "oauth_client": [
        {
          "client_id": "260602245039-mfpbni1kic4b6us8euh8k23h3ilh8lcl.apps.googleusercontent.com",
          "client_type": 3
        }
      ],
      "api_key": [
        {
          "current_key": "AIzaSyDgv7154F-fkAkj0irQnSAQ80y9jZs-f-E"
        }
      ],
      "services": {
        "appinvite_service": {
          "other_platform_oauth_client": [
            {
              "client_id": "260602245039-mfpbni1kic4b6us8euh8k23h3ilh8lcl.apps.googleusercontent.com",
              "client_type": 3
            }
          ]
        }
      }
    }
  ],
  "configuration_version": "1"
}